testbench/vcd/main.vcd
$date
	Tue Aug  3 21:21:19 2021
$end
$version
	Icarus Verilog
$end
$timescale
	100ps
$end
$scope module tb_Main $end
$var wire 1 ! RAM_WRITE_ENABLE $end
$var wire 32 " RAM_WRITE_DATA [31:0] $end
$var wire 32 # RAM_READ_DATA [31:0] $end
$var wire 10 $ RAM_ADDR [9:0] $end
$var wire 10 % INSTRUCTION_ADDR [9:0] $end
$var wire 32 & INSTRUCTION [31:0] $end
$var wire 32 ' GPIO [31:0] $end
$var reg 1 ( CLK $end
$scope module cpu $end
$var wire 1 ) B_beq $end
$var wire 1 * B_bge $end
$var wire 1 + B_bgeu $end
$var wire 1 , B_blt $end
$var wire 1 - B_bltu $end
$var wire 1 . B_bne $end
$var wire 1 ( CLK $end
$var wire 1 / CONTROL_HAZARD_STALL $end
$var wire 1 0 DATA_DEPENDENCY_HAZARD_R1 $end
$var wire 1 1 DATA_DEPENDENCY_HAZARD_R1_WRITEBACK $end
$var wire 1 2 DATA_DEPENDENCY_HAZARD_R2 $end
$var wire 1 3 DATA_DEPENDENCY_HAZARD_R2_WRITEBACK $end
$var wire 1 4 I_TYPE $end
$var wire 1 5 I_addi $end
$var wire 1 6 I_andi $end
$var wire 1 7 I_jalr $end
$var wire 1 8 I_lb $end
$var wire 1 9 I_lh $end
$var wire 1 : I_lw $end
$var wire 1 ; I_ori $end
$var wire 1 < I_slli $end
$var wire 1 = I_slti $end
$var wire 1 > I_sltiu $end
$var wire 1 ? I_srai $end
$var wire 1 @ I_srli $end
$var wire 1 A I_xori $end
$var wire 1 B LOAD_STALL $end
$var wire 1 C PC_ALU_SEL $end
$var wire 32 D R1_DATA_UNSIGNED [31:0] $end
$var wire 32 E R2_DATA_UNSIGNED [31:0] $end
$var wire 1 F REG_WRITE_ENABLE $end
$var wire 1 G R_add $end
$var wire 1 H R_and $end
$var wire 1 I R_or $end
$var wire 1 J R_sll $end
$var wire 1 K R_slt $end
$var wire 1 L R_sltu $end
$var wire 1 M R_sra $end
$var wire 1 N R_srl $end
$var wire 1 O R_sub $end
$var wire 1 P R_xor $end
$var wire 1 Q S_sb $end
$var wire 1 R S_sh $end
$var wire 1 S S_sw $end
$var wire 1 T U_TYPE $end
$var wire 1 U U_auipc $end
$var wire 1 V U_jal $end
$var wire 1 W U_lui $end
$var wire 1 X WB_I_TYPE $end
$var wire 1 Y WB_U_TYPE $end
$var wire 4 Z regWritebackSelectionInputs [3:0] $end
$var wire 1 [ isALUEqual $end
$var wire 8 \ immediateSelectionInputs [7:0] $end
$var wire 4 ] aluX2SelectionInputs [3:0] $end
$var wire 4 ^ aluX1SelectionInputs [3:0] $end
$var wire 16 _ aluOpEncoderInputs [15:0] $end
$var wire 1 ` WB_U_TYPE_LOAD $end
$var wire 1 a WB_U_TYPE_JUMP $end
$var wire 1 b WB_U_TYPE_AUIPC $end
$var wire 1 c WB_R_TYPE $end
$var wire 1 d WB_I_TYPE_OTHER $end
$var wire 1 e WB_I_TYPE_LOAD $end
$var wire 1 f WB_I_TYPE_JUMP $end
$var wire 1 g U_TYPE_LOAD $end
$var wire 1 h U_TYPE_JUMP $end
$var wire 1 i U_TYPE_AUIPC $end
$var wire 1 j S_TYPE $end
$var wire 1 k R_TYPE $end
$var wire 32 l REG_WRITE_DATA [31:0] $end
$var wire 2 m REG_WRITEBACK_SELECTION [1:0] $end
$var wire 5 n RD [4:0] $end
$var wire 1 ! RAM_WRITE_ENABLE $end
$var wire 32 o RAM_READ_DATA [31:0] $end
$var wire 10 p RAM_ADDR [9:0] $end
$var wire 32 q R2_DATA_EXECUTE_3 [31:0] $end
$var wire 32 r R2_DATA [31:0] $end
$var wire 5 s R2 [4:0] $end
$var wire 32 t R1_DATA_EXECUTE_3 [31:0] $end
$var wire 32 u R1_DATA [31:0] $end
$var wire 5 v R1 [4:0] $end
$var wire 7 w OPCODE_WRITEBACK_5 [6:0] $end
$var wire 7 x OPCODE [6:0] $end
$var wire 1 y I_TYPE_OTHER $end
$var wire 1 z I_TYPE_LOAD $end
$var wire 1 { I_TYPE_JUMP $end
$var wire 10 | INSTRUCTION_ADDR [9:0] $end
$var wire 32 } INSTRUCTION [31:0] $end
$var wire 32 ~ IMMEDIATE_VALUE [31:0] $end
$var wire 3 !" IMMEDIATE_SELECTION [2:0] $end
$var wire 7 "" FUNCT7 [6:0] $end
$var wire 3 #" FUNCT3 [2:0] $end
$var wire 1 $" B_TYPE $end
$var wire 2 %" ALU_X2_SEL [1:0] $end
$var wire 2 &" ALU_X1_SEL [1:0] $end
$var wire 32 '" ALU_OUT [31:0] $end
$var wire 4 (" ALU_OP [3:0] $end
$var reg 32 )" ALU_OUT_MEMORY_4 [31:0] $end
$var reg 32 *" ALU_X1 [31:0] $end
$var reg 32 +" ALU_X2 [31:0] $end
$var reg 32 ," GPIO [31:0] $end
$var reg 32 -" INSTRUCTION_DECODE_2 [31:0] $end
$var reg 32 ." INSTRUCTION_EXECUTE_3 [31:0] $end
$var reg 32 /" INSTRUCTION_MEMORY_4 [31:0] $end
$var reg 32 0" INSTRUCTION_WRITEBACK_5 [31:0] $end
$var reg 10 1" PC [9:0] $end
$var reg 10 2" PC_DECODE_2 [9:0] $end
$var reg 10 3" PC_EXECUTE_3 [9:0] $end
$var reg 10 4" PC_MEMORY_4 [9:0] $end
$var reg 32 5" RAM_READ_DATA_WRITEBACK_5 [31:0] $end
$var reg 32 6" RAM_WRITE_DATA [31:0] $end
$var reg 32 7" REG_WRITE_DATA_WRITEBACK_5 [31:0] $end
$var integer 32 8" DECODE [31:0] $end
$var integer 32 9" EXECUTE [31:0] $end
$var integer 32 :" MEMORY [31:0] $end
$var integer 32 ;" OP_B_TYPE [31:0] $end
$var integer 32 <" OP_I_TYPE_JUMP [31:0] $end
$var integer 32 =" OP_I_TYPE_LOAD [31:0] $end
$var integer 32 >" OP_I_TYPE_OTHER [31:0] $end
$var integer 32 ?" OP_R_TYPE [31:0] $end
$var integer 32 @" OP_S_TYPE [31:0] $end
$var integer 32 A" OP_U_TYPE_AUIPC [31:0] $end
$var integer 32 B" OP_U_TYPE_JUMP [31:0] $end
$var integer 32 C" OP_U_TYPE_LOAD [31:0] $end
$var integer 32 D" TYPE_BRANCH [31:0] $end
$var integer 32 E" TYPE_IMMEDIATE [31:0] $end
$var integer 32 F" TYPE_LOAD [31:0] $end
$var integer 32 G" TYPE_REGISTER [31:0] $end
$var integer 32 H" TYPE_STORE [31:0] $end
$var integer 32 I" TYPE_UPPERIMMEDIATE [31:0] $end
$var integer 32 J" WRITEBACK [31:0] $end
$scope begin PIPELINE[0] $end
$var wire 5 K" R1 [4:0] $end
$var wire 5 L" R2 [4:0] $end
$var wire 5 M" RD [4:0] $end
$var wire 3 N" TYPE [2:0] $end
$upscope $end
$scope begin PIPELINE[1] $end
$var wire 5 O" R1 [4:0] $end
$var wire 5 P" R2 [4:0] $end
$var wire 5 Q" RD [4:0] $end
$var wire 3 R" TYPE [2:0] $end
$upscope $end
$scope begin PIPELINE[2] $end
$var wire 5 S" R1 [4:0] $end
$var wire 5 T" R2 [4:0] $end
$var wire 5 U" RD [4:0] $end
$var wire 3 V" TYPE [2:0] $end
$upscope $end
$scope begin PIPELINE[3] $end
$var wire 5 W" R1 [4:0] $end
$var wire 5 X" R2 [4:0] $end
$var wire 5 Y" RD [4:0] $end
$var wire 3 Z" TYPE [2:0] $end
$upscope $end
$scope module alu $end
$var wire 32 [" X [31:0] $end
$var wire 32 \" X_signed [31:0] $end
$var wire 32 ]" Y [31:0] $end
$var wire 32 ^" Y_signed [31:0] $end
$var wire 1 [ isEqual $end
$var wire 4 _" OP [3:0] $end
$var reg 32 `" RESULT [31:0] $end
$upscope $end
$scope module aluOpEncoder $end
$var wire 16 a" in [15:0] $end
$var reg 4 b" out [3:0] $end
$upscope $end
$scope module aluX1SelectionEncoder $end
$var wire 4 c" in [3:0] $end
$var reg 2 d" out [1:0] $end
$upscope $end
$scope module aluX2SelectionEncoder $end
$var wire 4 e" in [3:0] $end
$var reg 2 f" out [1:0] $end
$upscope $end
$scope module immediateExtractor $end
$var wire 32 g" INSTRUCTION [31:0] $end
$var wire 3 h" SELECTION [2:0] $end
$var wire 32 i" Imm_UJ [31:0] $end
$var wire 32 j" Imm_U [31:0] $end
$var wire 32 k" Imm_S [31:0] $end
$var wire 32 l" Imm_I [31:0] $end
$var wire 32 m" Imm_B [31:0] $end
$var wire 4 n" IMM_4_1 [3:0] $end
$var wire 5 o" IMM_4_0 [4:0] $end
$var wire 20 p" IMM_31_12 [19:0] $end
$var wire 1 q" IMM_20 $end
$var wire 8 r" IMM_19_12 [7:0] $end
$var wire 1 s" IMM_12 $end
$var wire 1 t" IMM_11_J $end
$var wire 1 u" IMM_11_B $end
$var wire 7 v" IMM_11_5 [6:0] $end
$var wire 12 w" IMM_11_0 [11:0] $end
$var wire 6 x" IMM_10_5 [5:0] $end
$var wire 10 y" IMM_10_1 [9:0] $end
$var reg 32 z" VALUE [31:0] $end
$upscope $end
$scope module immediateSelectionEncoder $end
$var wire 8 {" in [7:0] $end
$var reg 3 |" out [2:0] $end
$upscope $end
$scope module regFile $end
$var wire 5 }" R1 [4:0] $end
$var wire 32 ~" R1_DATA [31:0] $end
$var wire 5 !# R2 [4:0] $end
$var wire 32 "# R2_DATA [31:0] $end
$var wire 5 ## RD [4:0] $end
$var wire 32 $# RD_DATA [31:0] $end
$var wire 1 F WRITE_ENABLE $end
$scope begin $ivl_for_loop0 $end
$var integer 32 %# i [31:0] $end
$upscope $end
$upscope $end
$scope module writeBackSelectionEncoder $end
$var wire 4 &# in [3:0] $end
$var reg 2 '# out [1:0] $end
$upscope $end
$upscope $end
$scope module ram $end
$var wire 10 (# ADDRESS [9:0] $end
$var wire 1 ( CLK $end
$var wire 32 )# DATA_IN [31:0] $end
$var wire 1 ! WRITE_ENABLE $end
$var wire 32 *# DATA_OUT [31:0] $end
$scope begin $ivl_for_loop1 $end
$var integer 32 +# i [31:0] $end
$upscope $end
$upscope $end
$scope module rom $end
$var wire 10 ,# ADDRESS [9:0] $end
$var wire 32 -# DATA [31:0] $end
$upscope $end
$scope begin $ivl_for_loop2 $end
$var integer 32 .# i [31:0] $end
$upscope $end
$upscope $end
$enddefinitions $end
#0
$dumpvars
b0 .#
b10011 -#
b0 ,#
b10000000000 +#
b0 *#
bx )#
b0 (#
b0 '#
b0 &#
b100000 %#
b0 $#
b0 ##
b0 "#
b0 !#
b0 ~"
b0 }"
b0 |"
b0 {"
b0 z"
b0 y"
b0 x"
b0 w"
b0 v"
0u"
0t"
0s"
b0 r"
0q"
b0 p"
b0 o"
b0 n"
b0 m"
b0 l"
b0 k"
b0 j"
b0 i"
b0 h"
b0 g"
b0 f"
b1 e"
b0 d"
b1 c"
b0 b"
b0 a"
b0 `"
b0 _"
b0 ^"
b0 ]"
b0 \"
b0 ["
bx Z"
bx Y"
bx X"
bx W"
bx V"
bx U"
bx T"
bx S"
bx R"
bx Q"
bx P"
bx O"
bx N"
bx M"
bx L"
bx K"
b11 J"
b100 I"
b10 H"
b0 G"
b1 F"
b11 E"
b101 D"
b110111 C"
b1100111 B"
b10111 A"
b100011 @"
b110011 ?"
b10011 >"
b11 ="
b1101111 <"
b1100011 ;"
b10 :"
b1 9"
b0 8"
b0 7"
bx 6"
b0 5"
b0 4"
b0 3"
b0 2"
b0 1"
b0 0"
b0 /"
b0 ."
b0 -"
bx ,"
b0 +"
b0 *"
b0 )"
b0 ("
b0 '"
b0 &"
b0 %"
0$"
b0 #"
b0 ""
b0 !"
b0 ~
b10011 }
b0 |
0{
0z
0y
b0 x
b0 w
b0 v
b0 u
b0 t
b0 s
b0 r
b0 q
b0 p
b0 o
b0 n
b0 m
b0 l
0k
0j
0i
0h
0g
0f
0e
0d
0c
0b
0a
0`
b0 _
b1 ^
b1 ]
b0 \
1[
b0 Z
0Y
0X
0W
0V
0U
0T
0S
0R
0Q
0P
0O
0N
0M
0L
0K
0J
0I
0H
0G
0F
b0 E
b0 D
0C
xB
0A
0@
0?
0>
0=
0<
0;
0:
09
08
07
06
05
04
x3
x2
x1
x0
0/
0.
0-
0,
0+
0*
0)
1(
bx '
b10011 &
b0 %
b0 $
b0 #
bx "
0!
$end
#200
0(
#400
0B
02
03
00
01
b100000000000010010011 &
b100000000000010010011 }
b100000000000010010011 -#
b1 %
b1 |
b1 ,#
b11 N"
b0 M"
b0 L"
b0 K"
b100 1"
b0 Q"
b0 P"
b0 O"
b10011 -"
b0 U"
b0 T"
b0 S"
b0 Y"
b0 X"
b0 W"
b0 "
b0 6"
b0 )#
1(
b1 .#
#600
0(
#800
b1 %"
b1 f"
b11 ]
b11 e"
b1 _
b1 a"
b1 !"
b1 h"
b1 |"
15
b10 \
b10 {"
14
1y
b10011 x
b100000000001100010011 &
b100000000001100010011 }
b100000000001100010011 -#
b10 %
b10 |
b10 ,#
b10011 ."
b10011 g"
b11 R"
b100 2"
b100000000000010010011 -"
b1 M"
b1 L"
b1000 1"
1(
b10 .#
#1000
0(
#1200
b1 '"
b1 `"
b1 ^"
0[
b1 +"
b1 ]"
b1 ~
b1 z"
b1 l"
b100000000000000000000 j"
b1 k"
b100000000000 m"
b100000000000 i"
b10000000000011000010011 &
b10000000000011000010011 }
b10000000000011000010011 -#
b11 %
b11 |
b11 ,#
b1 s
b1 !#
b1 w"
b100000000 p"
b1 o"
1u"
1t"
b110 M"
b1100 1"
b1 Q"
b1 P"
b1000 2"
b100000000001100010011 -"
b11 V"
b100000000000010010011 ."
b100000000000010010011 g"
b100 3"
b10011 /"
1(
b11 .#
#1400
0(
#1600
1F
b1 m
b1 '#
b10 Z
b10 &#
1X
b110 k"
b110 m"
1d
b10011 w
b1 $
b1 p
b1 (#
b110 o"
0u"
b11 n"
b11000000010000000100011 &
b11000000010000000100011 }
b11000000010000000100011 -#
b100 %
b100 |
b100 ,#
b10011 0"
b11 Z"
b1 )"
b100 4"
b100000000000010010011 /"
b1 U"
b1 T"
b100000000001100010011 ."
b100000000001100010011 g"
b1000 3"
b110 Q"
b1100 2"
b10000000000011000010011 -"
b1100 M"
b100 L"
b10000 1"
1(
b100 .#
#1800
0(
#2000
b100 '"
b100 `"
b100 ^"
b100 +"
b100 ]"
b100 ~
b100 z"
b100 l"
b10000000000000000000000 j"
b1100 k"
b1100 m"
b100 i"
b10001100000011 &
b10001100000011 }
b10001100000011 -#
b101 %
b101 |
b101 ,#
b100 s
b100 !#
b100 w"
b10000000000 p"
b1100 o"
b110 n"
0t"
b10 y"
b1 l
b1 $#
b1 n
b1 ##
b10 N"
b0 M"
b110 L"
b10100 1"
b1100 Q"
b100 P"
b10000 2"
b11000000010000000100011 -"
b110 U"
b10000000000011000010011 ."
b10000000000011000010011 g"
b1100 3"
b1 Y"
b1 X"
b1000 4"
b100000000001100010011 /"
b1 7"
b100000000000010010011 0"
1(
b101 .#
#2200
0(
#2400
b0 '"
b0 `"
b0 ^"
1[
b0 +"
b0 ]"
b1 q
b1 "#
b1 E
b1 r
b0 _
b0 a"
b0 ~
b0 z"
04
b11 !"
b11 h"
b11 |"
05
b110 l"
b11000000010000000000000 j"
b0 k"
b0 m"
b10000000000110 i"
b110 n
b110 ##
13
b100 $
b100 p
b100 (#
0y
b1000 \
b1000 {"
1j
b100011 x
b10 #"
b110 s
b110 !#
b110 w"
b11000000010 p"
b0 o"
b0 n"
b10 r"
b11 y"
b100110000001100010011 &
b100110000001100010011 }
b100110000001100010011 -#
b110 %
b110 |
b110 ,#
b100000000001100010011 0"
b110 Y"
b100 )"
b1100 4"
b10000000000011000010011 /"
b1100 U"
b100 T"
b11000000010000000100011 ."
b11000000010000000100011 g"
b10000 3"
b0 Q"
b110 P"
b10 R"
b10100 2"
b10001100000011 -"
b1 N"
b110 M"
b0 L"
b11000 1"
1(
b110 .#
#2600
0(
#2800
b1 %"
b1 f"
1B
b11 ]
b11 e"
14
b0 E
b0 r
b1 !"
b1 h"
b1 |"
b0 l"
b10000000000000 j"
b110 k"
b110 m"
b10000000000000 i"
1S
b11000000010000000100011 &
b11000000010000000100011 }
b11000000010000000100011 -#
b111 %
b111 |
b111 ,#
02
1z
b10 \
b10 {"
0j
b11 x
b0 q
b0 "#
b0 s
b0 !#
b0 w"
b10 p"
b110 o"
b11 n"
b0 y"
03
b0 $
b0 p
b0 (#
1!
b100 l
b100 $#
b1100 n
b1100 ##
b11 N"
b1 L"
b110 K"
b11100 1"
b110 Q"
b0 P"
b1 R"
b11000 2"
b100110000001100010011 -"
b0 U"
b110 T"
b10 V"
b1 '
b1 ,"
b10001100000011 ."
b10001100000011 g"
b10100 3"
b1100 Y"
b100 X"
b1 "
b1 6"
b1 )#
b0 )"
b10000 4"
b11000000010000000100011 /"
b100 7"
b10000000000011000010011 0"
1(
b111 .#
#3000
0(
#3200
0F
b0 m
b0 '#
b1 _
b1 a"
b0 Z
b0 &#
0X
1:
0S
15
b0 j"
b0 k"
b0 m"
b0 i"
b1 #
b1 o
b1 *#
b0 l
b0 $#
b0 n
b0 ##
0d
b100011 w
0!
0z
1y
b10011 x
b0 #"
b0 p"
b0 o"
b0 n"
b0 r"
0B
b0 7"
b11000000010000000100011 0"
b0 Y"
b110 X"
b10 Z"
b0 "
b0 6"
b0 )#
b10100 4"
b10001100000011 /"
b110 U"
b0 T"
b1 V"
b10011 ."
b10011 g"
b0 Q"
b0 P"
b0 O"
b11 R"
b10 N"
b0 M"
b110 L"
b0 K"
1(
b1000 .#
#3400
0(
#3600
b10 '"
b10 `"
b1 ^"
b1 +"
b1 ]"
b1 \"
1[
b1 *"
b1 ["
1F
b1 D
b1 u
b1 E
b1 r
b1 ~
b1 z"
b1 l
b1 $#
1X
11
b1 l"
b100110000000000000000 j"
b110 k"
b110 m"
b110000100000000000 i"
0:
b11 m
b11 '#
b11111110110000110100101011100011 &
b11111110110000110100101011100011 }
b11111110110000110100101011100011 -#
b1000 %
b1000 |
b1000 ,#
b1 t
b1 ~"
b110 v
b110 }"
b1 q
b1 "#
b1 s
b1 !#
b1 w"
b100110000 p"
b110 o"
b11 n"
b110000 r"
1t"
b110 n
b110 ##
b1000 Z
b1000 &#
1e
b11 w
b100000 1"
b110 Q"
b1 P"
b110 O"
b11100 2"
b11000000010000000100011 -"
b0 U"
b11 V"
b100110000001100010011 ."
b100110000001100010011 g"
b11000 3"
b110 Y"
b0 X"
b1 Z"
b10011 /"
b1 5"
b10001100000011 0"
1(
b1001 .#
#3800
0(
#4000
b0 '"
b0 `"
b0 \"
b0 *"
b0 ["
b0 ^"
1[
b0 +"
b0 ]"
b0 D
b0 u
b0 l
b0 $#
b0 _
b0 a"
b0 ~
b0 z"
b1 m
b1 '#
b0 #
b0 o
b0 *#
b10 E
b10 r
04
b11 !"
b11 h"
b11 |"
05
b110 l"
b11000000010000000000000 j"
b0 k"
b0 m"
b10000000000110 i"
01
1/
b0 n
b0 ##
b10 Z
b10 &#
0e
1d
b10011 w
b10 $
b10 p
b10 (#
12
0y
b1000 \
b1000 {"
1j
b100011 x
b10 #"
b0 t
b0 ~"
b0 v
b0 }"
b110 s
b110 !#
b110 w"
b11000000010 p"
b0 o"
b0 n"
b10 r"
0t"
b11 y"
b10011 &
b10011 }
b10011 -#
b1001 %
b1001 |
b1001 ,#
b10011 0"
b0 Y"
b11 Z"
b1 "
b1 6"
b1 )#
b10 )"
b11000 4"
b100110000001100010011 /"
b110 U"
b1 T"
b110 S"
b11000000010000000100011 ."
b11000000010000000100011 g"
b11100 3"
b0 Q"
b110 P"
b0 O"
b10 R"
b100000 2"
b11111110110000110100101011100011 -"
b101 N"
b10101 M"
b1100 L"
b110 K"
b100100 1"
1(
b1010 .#
#4200
0(
#4400
b10100 '"
b10100 `"
b11111111111111111111111111110100 ^"
b11111111111111111111111111110100 +"
b11111111111111111111111111110100 ]"
b100000 \"
0[
b100000 *"
b100000 ["
1C
b1 &"
b1 d"
b11 ^
b11 c"
b10 D
b10 u
b11111111111111111111111111110100 ~
b11111111111111111111111111110100 z"
11
b100 !"
b100 h"
b100 |"
1,
b11111111111111111111111111101100 l"
b11111110110000110100000000000000 j"
b11111111111111111111111111110101 k"
b11111111111111111111111111110100 m"
b11111111111100110100011111101100 i"
b1 #
b1 o
b1 *#
1S
02
0j
b10000 \
b10000 {"
1$"
b1100011 x
b100 #"
b10 t
b10 ~"
b110 v
b110 }"
b100 q
b100 "#
b1100 s
b1100 !#
b1111111 ""
b111111101100 w"
b11111110110000110100 p"
b10101 o"
b1111111 v"
1u"
b1010 n"
b111111 x"
1s"
b110100 r"
b1111110110 y"
1q"
b100 E
b100 r
b0 $
b0 p
b0 (#
1!
b10 l
b10 $#
b110 n
b110 ##
b11 N"
b0 M"
b0 L"
b0 K"
b10101 Q"
b1100 P"
b110 O"
b101 R"
b10011 -"
b0 U"
b110 T"
b0 S"
b10 V"
b10 '
b10 ,"
b11111110110000110100101011100011 ."
b11111110110000110100101011100011 g"
b100000 3"
b110 Y"
b1 X"
b110 W"
b10 "
b10 6"
b10 )#
b0 )"
b11100 4"
b11000000010000000100011 /"
b10 7"
b0 5"
b100110000001100010011 0"
1(
b1011 .#
#4600
0(
#4800
b0 '"
b0 `"
b0 \"
1[
b0 *"
b0 ["
b0 ^"
b0 +"
b0 ]"
0C
b0 &"
b0 d"
0F
b1 %"
b1 f"
b1 ^
b1 c"
b0 D
b0 u
b0 m
b0 '#
b11 ]
b11 e"
b1 _
b1 a"
b0 E
b0 r
b0 ~
b0 z"
b0 Z
b0 &#
0X
0S
14
b1 !"
b1 h"
b1 |"
15
0,
0/
b0 l"
b0 j"
b0 k"
b0 m"
b0 i"
01
b0 #
b0 o
b0 *#
b0 l
b0 $#
b0 n
b0 ##
0d
b100011 w
b10100 $
b10100 p
b10100 (#
0!
1y
b10 \
b10 {"
0$"
b10011 x
b0 #"
b0 t
b0 ~"
b0 v
b0 }"
b0 q
b0 "#
b0 s
b0 !#
b0 ""
b0 w"
b0 p"
b0 o"
b0 v"
0u"
b0 n"
b0 x"
0s"
b0 r"
b0 y"
0q"
b10001100000011 &
b10001100000011 }
b10001100000011 -#
b101 %
b101 |
b101 ,#
b0 7"
b1 5"
b11000000010000000100011 0"
b0 Y"
b110 X"
b0 W"
b10 Z"
b100 "
b100 6"
b100 )#
b10100 )"
b100000 4"
b11111110110000110100101011100011 /"
b10101 U"
b1100 T"
b110 S"
b101 V"
b10011 ."
b10011 g"
b0 Q"
b0 P"
b0 O"
b11 R"
b10100 1"
1(
b1100 .#
#5000
0(
#5200
b10 #
b10 o
b10 *#
b100110000001100010011 &
b100110000001100010011 }
b100110000001100010011 -#
b110 %
b110 |
b110 ,#
b0 $
b0 p
b0 (#
b10101 n
b10101 ##
b1100011 w
b1 N"
b110 M"
b11000 1"
b10100 2"
b10001100000011 -"
b0 U"
b0 T"
b0 S"
b11 V"
b10101 Y"
b1100 X"
b110 W"
b101 Z"
b0 "
b0 6"
b0 )#
b0 )"
b10011 /"
b0 5"
b11111110110000110100101011100011 0"
1(
b1101 .#
#5400
0(
#5600
b1 %"
b1 f"
b11 ]
b11 e"
1F
1B
b1 m
b1 '#
b1 !"
b1 h"
b1 |"
b0 _
b0 a"
b10 Z
b10 &#
1X
b10 \
b10 {"
14
05
b10000000000000 j"
b110 k"
b110 m"
b10000000000000 i"
b0 n
b0 ##
1d
b10011 w
1z
0y
b11 x
b10 #"
b10 p"
b110 o"
b11 n"
b10 r"
b11000000010000000100011 &
b11000000010000000100011 }
b11000000010000000100011 -#
b111 %
b111 |
b111 ,#
b10 5"
b10011 0"
b0 Y"
b0 X"
b0 W"
b11 Z"
b10001100000011 ."
b10001100000011 g"
b10100 3"
b110 Q"
b1 R"
b11000 2"
b100110000001100010011 -"
b11 N"
b1 L"
b110 K"
b11100 1"
1(
b1110 .#
#5800
0(
#6000
b1 _
b1 a"
15
b0 j"
b0 k"
b0 m"
b0 i"
1:
0B
0z
1y
b10011 x
b0 #"
b0 p"
b0 o"
b0 n"
b0 r"
b10 N"
b0 M"
b110 L"
b0 K"
b0 Q"
b0 P"
b0 O"
b11 R"
b110 U"
b1 V"
b10011 ."
b10011 g"
b10100 4"
b10001100000011 /"
1(
b1111 .#
#6200
0(
#6400
b11 '"
b11 `"
b10 \"
b10 *"
b10 ["
b1 ^"
0[
b1 +"
b1 ]"
b10 D
b10 u
1F
b10 l
b10 $#
b1 E
b1 r
b1 ~
b1 z"
b11 m
b11 '#
1X
0:
b1 l"
b100110000000000000000 j"
b110 k"
b110 m"
b110000100000000000 i"
11
b110 n
b110 ##
b1000 Z
b1000 &#
1e
0d
b11 w
b10 t
b10 ~"
b110 v
b110 }"
b1 q
b1 "#
b1 s
b1 !#
b1 w"
b100110000 p"
b110 o"
b11 n"
b110000 r"
1t"
b11111110110000110100101011100011 &
b11111110110000110100101011100011 }
b11111110110000110100101011100011 -#
b1000 %
b1000 |
b1000 ,#
b10001100000011 0"
b110 Y"
b1 Z"
b10011 /"
b0 U"
b11 V"
b100110000001100010011 ."
b100110000001100010011 g"
b11000 3"
b110 Q"
b1 P"
b110 O"
b11100 2"
b11000000010000000100011 -"
b100000 1"
1(
b10000 .#
#6600
0(
#6800
b0 '"
b0 `"
b0 \"
1[
b0 *"
b0 ["
b0 ^"
b0 +"
b0 ]"
b0 D
b0 u
b0 _
b0 a"
b0 ~
b0 z"
b0 l
b0 $#
b11 E
b11 r
01
1/
04
b11 !"
b11 h"
b11 |"
05
b110 l"
b11000000010000000000000 j"
b0 k"
b0 m"
b10000000000110 i"
b0 #
b0 o
b0 *#
b1 m
b1 '#
b10011 &
b10011 }
b10011 -#
b1001 %
b1001 |
b1001 ,#
12
0y
b1000 \
b1000 {"
1j
b100011 x
b10 #"
b0 t
b0 ~"
b0 v
b0 }"
b10 q
b10 "#
b110 s
b110 !#
b110 w"
b11000000010 p"
b0 o"
b0 n"
b10 r"
0t"
b11 y"
b11 $
b11 p
b11 (#
b0 n
b0 ##
b10 Z
b10 &#
0e
1d
b10011 w
b101 N"
b10101 M"
b1100 L"
b110 K"
b100100 1"
b0 Q"
b110 P"
b0 O"
b10 R"
b100000 2"
b11111110110000110100101011100011 -"
b110 U"
b1 T"
b110 S"
b11000000010000000100011 ."
b11000000010000000100011 g"
b11100 3"
b0 Y"
b11 Z"
b1 "
b1 6"
b1 )#
b11 )"
b11000 4"
b100110000001100010011 /"
b10011 0"
1(
b10001 .#
#7000
0(
#7200
b10100 '"
b10100 `"
b11111111111111111111111111110100 ^"
b11111111111111111111111111110100 +"
b11111111111111111111111111110100 ]"
b100000 \"
0[
b100000 *"
b100000 ["
1C
b1 &"
b1 d"
b11 ^
b11 c"
b11 D
b11 u
b11111111111111111111111111110100 ~
b11111111111111111111111111110100 z"
b10 #
b10 o
b10 *#
1S
b100 !"
b100 h"
b100 |"
1,
b11111111111111111111111111101100 l"
b11111110110000110100000000000000 j"
b11111111111111111111111111110101 k"
b11111111111111111111111111110100 m"
b11111111111100110100011111101100 i"
11
b11 l
b11 $#
b110 n
b110 ##
b100 E
b100 r
b0 $
b0 p
b0 (#
1!
0j
b10000 \
b10000 {"
1$"
b1100011 x
b100 #"
b11 t
b11 ~"
b110 v
b110 }"
b100 q
b100 "#
b1100 s
b1100 !#
b1111111 ""
b111111101100 w"
b11111110110000110100 p"
b10101 o"
b1111111 v"
1u"
b1010 n"
b111111 x"
1s"
b110100 r"
b1111110110 y"
1q"
02
b11 7"
b0 5"
b100110000001100010011 0"
b110 Y"
b1 X"
b110 W"
b11 "
b11 6"
b11 )#
b0 )"
b11100 4"
b11000000010000000100011 /"
b0 U"
b110 T"
b0 S"
b10 V"
b11 '
b11 ,"
b11111110110000110100101011100011 ."
b11111110110000110100101011100011 g"
b100000 3"
b10101 Q"
b1100 P"
b110 O"
b101 R"
b10011 -"
b11 N"
b0 M"
b0 L"
b0 K"
1(
b10010 .#
#7400
0(
#7600
b0 '"
b0 `"
b0 \"
1[
b0 *"
b0 ["
b0 ^"
b0 +"
b0 ]"
0C
b0 &"
b0 d"
b1 %"
b1 f"
b1 ^
b1 c"
0F
b11 ]
b11 e"
b1 _
b1 a"
b0 E
b0 r
b0 ~
b0 z"
b0 D
b0 u
b0 m
b0 '#
01
14
b1 !"
b1 h"
b1 |"
15
0,
0/
b0 l"
b0 j"
b0 k"
b0 m"
b0 i"
0S
b0 Z
b0 &#
0X
b10001100000011 &
b10001100000011 }
b10001100000011 -#
b101 %
b101 |
b101 ,#
1y
b10 \
b10 {"
0$"
b10011 x
b0 #"
b0 t
b0 ~"
b0 v
b0 }"
b0 q
b0 "#
b0 s
b0 !#
b0 ""
b0 w"
b0 p"
b0 o"
b0 v"
0u"
b0 n"
b0 x"
0s"
b0 r"
b0 y"
0q"
b10100 $
b10100 p
b10100 (#
0!
b0 l
b0 $#
b0 n
b0 ##
0d
b100011 w
b0 #
b0 o
b0 *#
b10100 1"
b0 Q"
b0 P"
b0 O"
b11 R"
b10101 U"
b1100 T"
b110 S"
b101 V"
b10011 ."
b10011 g"
b0 Y"
b110 X"
b0 W"
b10 Z"
b100 "
b100 6"
b100 )#
b10100 )"
b100000 4"
b11111110110000110100101011100011 /"
b0 7"
b10 5"
b11000000010000000100011 0"
1(
b10011 .#
#7800
0(
