testbench/vcd/main.vcd
$date
	Sun Dec  4 14:45:26 2022
$end
$version
	Icarus Verilog
$end
$timescale
	100ps
$end
$scope module tb_Main $end
$var wire 1 ! RAM_WRITE_ENABLE $end
$var wire 32 " RAM_WRITE_DATA [31:0] $end
$var wire 32 # RAM_READ_DATA [31:0] $end
$var wire 10 $ RAM_ADDR [9:0] $end
$var wire 10 % INSTRUCTION_ADDR [9:0] $end
$var wire 32 & INSTRUCTION [31:0] $end
$var wire 32 ' GPIO [31:0] $end
$var reg 1 ( CLK $end
$scope module cpu $end
$var wire 1 ) B_beq $end
$var wire 1 * B_bge $end
$var wire 1 + B_bgeu $end
$var wire 1 , B_blt $end
$var wire 1 - B_bltu $end
$var wire 1 . B_bne $end
$var wire 1 ( CLK $end
$var wire 1 / CONTROL_HAZARD_STALL $end
$var wire 1 0 DATA_DEPENDENCY_HAZARD_R1 $end
$var wire 1 1 DATA_DEPENDENCY_HAZARD_R1_WRITEBACK $end
$var wire 1 2 DATA_DEPENDENCY_HAZARD_R2 $end
$var wire 1 3 DATA_DEPENDENCY_HAZARD_R2_WRITEBACK $end
$var wire 1 4 I_TYPE $end
$var wire 1 5 I_addi $end
$var wire 1 6 I_andi $end
$var wire 1 7 I_jalr $end
$var wire 1 8 I_lb $end
$var wire 1 9 I_lh $end
$var wire 1 : I_lw $end
$var wire 1 ; I_ori $end
$var wire 1 < I_slli $end
$var wire 1 = I_slti $end
$var wire 1 > I_sltiu $end
$var wire 1 ? I_srai $end
$var wire 1 @ I_srli $end
$var wire 1 A I_xori $end
$var wire 1 B LOAD_STALL $end
$var wire 1 C PC_ALU_SEL $end
$var wire 32 D R1_DATA_UNSIGNED [31:0] $end
$var wire 32 E R2_DATA_UNSIGNED [31:0] $end
$var wire 1 F REG_WRITE_ENABLE $end
$var wire 1 G R_add $end
$var wire 1 H R_and $end
$var wire 1 I R_or $end
$var wire 1 J R_sll $end
$var wire 1 K R_slt $end
$var wire 1 L R_sltu $end
$var wire 1 M R_sra $end
$var wire 1 N R_srl $end
$var wire 1 O R_sub $end
$var wire 1 P R_xor $end
$var wire 1 Q S_sb $end
$var wire 1 R S_sh $end
$var wire 1 S S_sw $end
$var wire 1 T U_TYPE $end
$var wire 1 U U_auipc $end
$var wire 1 V U_jal $end
$var wire 1 W U_lui $end
$var wire 1 X WB_I_TYPE $end
$var wire 1 Y WB_U_TYPE $end
$var wire 4 Z regWritebackSelectionInputs [3:0] $end
$var wire 1 [ isALUEqual $end
$var wire 8 \ immediateSelectionInputs [7:0] $end
$var wire 4 ] aluX2SelectionInputs [3:0] $end
$var wire 4 ^ aluX1SelectionInputs [3:0] $end
$var wire 16 _ aluOpEncoderInputs [15:0] $end
$var wire 1 ` WB_U_TYPE_LOAD $end
$var wire 1 a WB_U_TYPE_JUMP $end
$var wire 1 b WB_U_TYPE_AUIPC $end
$var wire 1 c WB_R_TYPE $end
$var wire 1 d WB_I_TYPE_OTHER $end
$var wire 1 e WB_I_TYPE_LOAD $end
$var wire 1 f WB_I_TYPE_JUMP $end
$var wire 1 g U_TYPE_LOAD $end
$var wire 1 h U_TYPE_JUMP $end
$var wire 1 i U_TYPE_AUIPC $end
$var wire 1 j S_TYPE $end
$var wire 1 k R_TYPE $end
$var wire 32 l REG_WRITE_DATA [31:0] $end
$var wire 2 m REG_WRITEBACK_SELECTION [1:0] $end
$var wire 5 n RD [4:0] $end
$var wire 1 ! RAM_WRITE_ENABLE $end
$var wire 32 o RAM_READ_DATA [31:0] $end
$var wire 10 p RAM_ADDR [9:0] $end
$var wire 32 q R2_DATA_EXECUTE_3 [31:0] $end
$var wire 32 r R2_DATA [31:0] $end
$var wire 5 s R2 [4:0] $end
$var wire 32 t R1_DATA_EXECUTE_3 [31:0] $end
$var wire 32 u R1_DATA [31:0] $end
$var wire 5 v R1 [4:0] $end
$var wire 7 w OPCODE_WRITEBACK_5 [6:0] $end
$var wire 7 x OPCODE [6:0] $end
$var wire 1 y I_TYPE_OTHER $end
$var wire 1 z I_TYPE_LOAD $end
$var wire 1 { I_TYPE_JUMP $end
$var wire 10 | INSTRUCTION_ADDR [9:0] $end
$var wire 32 } INSTRUCTION [31:0] $end
$var wire 32 ~ IMMEDIATE_VALUE [31:0] $end
$var wire 3 !" IMMEDIATE_SELECTION [2:0] $end
$var wire 7 "" FUNCT7 [6:0] $end
$var wire 3 #" FUNCT3 [2:0] $end
$var wire 1 $" B_TYPE $end
$var wire 2 %" ALU_X2_SEL [1:0] $end
$var wire 2 &" ALU_X1_SEL [1:0] $end
$var wire 32 '" ALU_OUT [31:0] $end
$var wire 4 (" ALU_OP [3:0] $end
$var reg 32 )" ALU_OUT_MEMORY_4 [31:0] $end
$var reg 32 *" ALU_X1 [31:0] $end
$var reg 32 +" ALU_X2 [31:0] $end
$var reg 32 ," GPIO [31:0] $end
$var reg 32 -" INSTRUCTION_DECODE_2 [31:0] $end
$var reg 32 ." INSTRUCTION_EXECUTE_3 [31:0] $end
$var reg 32 /" INSTRUCTION_MEMORY_4 [31:0] $end
$var reg 32 0" INSTRUCTION_WRITEBACK_5 [31:0] $end
$var reg 10 1" PC [9:0] $end
$var reg 10 2" PC_DECODE_2 [9:0] $end
$var reg 10 3" PC_EXECUTE_3 [9:0] $end
$var reg 10 4" PC_MEMORY_4 [9:0] $end
$var reg 32 5" RAM_READ_DATA_WRITEBACK_5 [31:0] $end
$var reg 32 6" RAM_WRITE_DATA [31:0] $end
$var reg 32 7" REG_WRITE_DATA_WRITEBACK_5 [31:0] $end
$scope module alu $end
$var wire 32 8" X [31:0] $end
$var wire 32 9" X_signed [31:0] $end
$var wire 32 :" Y [31:0] $end
$var wire 32 ;" Y_signed [31:0] $end
$var wire 1 [ isEqual $end
$var wire 4 <" OP [3:0] $end
$var reg 32 =" RESULT [31:0] $end
$upscope $end
$scope module aluOpEncoder $end
$var wire 16 >" in [15:0] $end
$var reg 4 ?" out [3:0] $end
$upscope $end
$scope module aluX1SelectionEncoder $end
$var wire 4 @" in [3:0] $end
$var reg 2 A" out [1:0] $end
$upscope $end
$scope module aluX2SelectionEncoder $end
$var wire 4 B" in [3:0] $end
$var reg 2 C" out [1:0] $end
$upscope $end
$scope module immediateExtractor $end
$var wire 32 D" INSTRUCTION [31:0] $end
$var wire 3 E" SELECTION [2:0] $end
$var wire 32 F" Imm_UJ [31:0] $end
$var wire 32 G" Imm_U [31:0] $end
$var wire 32 H" Imm_S [31:0] $end
$var wire 32 I" Imm_I [31:0] $end
$var wire 32 J" Imm_B [31:0] $end
$var wire 4 K" IMM_4_1 [3:0] $end
$var wire 5 L" IMM_4_0 [4:0] $end
$var wire 20 M" IMM_31_12 [19:0] $end
$var wire 1 N" IMM_20 $end
$var wire 8 O" IMM_19_12 [7:0] $end
$var wire 1 P" IMM_12 $end
$var wire 1 Q" IMM_11_J $end
$var wire 1 R" IMM_11_B $end
$var wire 7 S" IMM_11_5 [6:0] $end
$var wire 12 T" IMM_11_0 [11:0] $end
$var wire 6 U" IMM_10_5 [5:0] $end
$var wire 10 V" IMM_10_1 [9:0] $end
$var reg 32 W" VALUE [31:0] $end
$upscope $end
$scope module immediateSelectionEncoder $end
$var wire 8 X" in [7:0] $end
$var reg 3 Y" out [2:0] $end
$upscope $end
$scope module regFile $end
$var wire 5 Z" R1 [4:0] $end
$var wire 32 [" R1_DATA [31:0] $end
$var wire 5 \" R2 [4:0] $end
$var wire 32 ]" R2_DATA [31:0] $end
$var wire 5 ^" RD [4:0] $end
$var wire 32 _" RD_DATA [31:0] $end
$var wire 1 F WRITE_ENABLE $end
$var integer 32 `" i [31:0] $end
$upscope $end
$scope module writeBackSelectionEncoder $end
$var wire 4 a" in [3:0] $end
$var reg 2 b" out [1:0] $end
$upscope $end
$upscope $end
$scope module ram $end
$var wire 10 c" ADDRESS [9:0] $end
$var wire 1 ( CLK $end
$var wire 32 d" DATA_IN [31:0] $end
$var wire 32 e" DATA_OUT [31:0] $end
$var wire 1 ! WRITE_ENABLE $end
$upscope $end
$scope module rom $end
$var wire 10 f" ADDRESS [9:0] $end
$var wire 32 g" DATA [31:0] $end
$upscope $end
$scope begin $ivl_for_loop0 $end
$var integer 32 h" i [31:0] $end
$upscope $end
$upscope $end
$enddefinitions $end
#0
$dumpvars
b0 h"
b10011 g"
b0 f"
bx e"
bx d"
b0 c"
b0 b"
b0 a"
b100000 `"
b0 _"
b0 ^"
b0 ]"
b0 \"
b0 ["
b0 Z"
b0 Y"
b0 X"
b0 W"
b0 V"
b0 U"
b0 T"
b0 S"
0R"
0Q"
0P"
b0 O"
0N"
b0 M"
b0 L"
b0 K"
b0 J"
b0 I"
b0 H"
b0 G"
b0 F"
b0 E"
b0 D"
b0 C"
b1 B"
b0 A"
b1 @"
b0 ?"
b0 >"
b0 ="
b0 <"
b0 ;"
b0 :"
b0 9"
b0 8"
b0 7"
bx 6"
b0 5"
b0 4"
b0 3"
b0 2"
b0 1"
b0 0"
b0 /"
b0 ."
b0 -"
bx ,"
b0 +"
b0 *"
b0 )"
b0 ("
b0 '"
b0 &"
b0 %"
0$"
b0 #"
b0 ""
b0 !"
b0 ~
b10011 }
b0 |
0{
0z
0y
b0 x
b0 w
b0 v
b0 u
b0 t
b0 s
b0 r
b0 q
b0 p
bx o
b0 n
b0 m
b0 l
0k
0j
0i
0h
0g
0f
0e
0d
0c
0b
0a
0`
b0 _
b1 ^
b1 ]
b0 \
1[
b0 Z
0Y
0X
0W
0V
0U
0T
0S
0R
0Q
0P
0O
0N
0M
0L
0K
0J
0I
0H
0G
0F
b0 E
b0 D
0C
xB
0A
0@
0?
0>
0=
0<
0;
0:
09
08
07
06
05
04
x3
x2
x1
x0
0/
0.
0-
0,
0+
0*
0)
1(
bx '
b10011 &
b0 %
b0 $
bx #
bx "
0!
$end
#200
0(
#400
0B
02
03
00
01
b100000000000010010011 &
b100000000000010010011 }
b100000000000010010011 g"
b1 %
b1 |
b1 f"
b100 1"
b10011 -"
b0 "
b0 6"
b0 d"
bx 5"
1(
b1 h"
#600
0(
#800
b1 %"
b1 C"
b11 ]
b11 B"
b1 _
b1 >"
b1 !"
b1 E"
b1 Y"
15
b10 \
b10 X"
14
1y
b10011 x
b100000000001100010011 &
b100000000001100010011 }
b100000000001100010011 g"
b10 %
b10 |
b10 f"
b10011 ."
b10011 D"
b100 2"
b100000000000010010011 -"
b1000 1"
1(
b10 h"
#1000
0(
#1200
b1 '"
b1 ="
b1 ;"
0[
b1 +"
b1 :"
b1 ~
b1 W"
b1 I"
b100000000000000000000 G"
b1 H"
b100000000000 J"
b100000000000 F"
b10000000000011000010011 &
b10000000000011000010011 }
b10000000000011000010011 g"
b11 %
b11 |
b11 f"
b1 s
b1 \"
b1 T"
b100000000 M"
b1 L"
1R"
1Q"
b1100 1"
b1000 2"
b100000000001100010011 -"
b100000000000010010011 ."
b100000000000010010011 D"
b100 3"
b10011 /"
1(
b11 h"
#1400
0(
#1600
1F
b1 m
b1 b"
b10 Z
b10 a"
1X
b110 H"
b110 J"
1d
b10011 w
b1 $
b1 p
b1 c"
b110 L"
0R"
b11 K"
b11000000010000000100011 &
b11000000010000000100011 }
b11000000010000000100011 g"
b100 %
b100 |
b100 f"
b10011 0"
b1 )"
b100 4"
b100000000000010010011 /"
b100000000001100010011 ."
b100000000001100010011 D"
b1000 3"
b1100 2"
b10000000000011000010011 -"
b10000 1"
1(
b100 h"
#1800
0(
#2000
b100 '"
b100 ="
b100 ;"
b100 +"
b100 :"
b100 ~
b100 W"
b100 I"
b10000000000000000000000 G"
b1100 H"
b1100 J"
b100 F"
b10001100000011 &
b10001100000011 }
b10001100000011 g"
b101 %
b101 |
b101 f"
b100 s
b100 \"
b100 T"
b10000000000 M"
b1100 L"
b110 K"
0Q"
b10 V"
b1 l
b1 _"
b1 n
b1 ^"
b10100 1"
b10000 2"
b11000000010000000100011 -"
b10000000000011000010011 ."
b10000000000011000010011 D"
b1100 3"
b1000 4"
b100000000001100010011 /"
b1 7"
b100000000000010010011 0"
1(
b101 h"
#2200
0(
#2400
b0 '"
b0 ="
b0 ;"
1[
b0 +"
b0 :"
b1 q
b1 ]"
b1 E
b1 r
b0 _
b0 >"
b0 ~
b0 W"
04
b11 !"
b11 E"
b11 Y"
05
b110 I"
b11000000010000000000000 G"
b0 H"
b0 J"
b10000000000110 F"
b110 n
b110 ^"
13
b100 $
b100 p
b100 c"
0y
b1000 \
b1000 X"
1j
b100011 x
b10 #"
b110 s
b110 \"
b110 T"
b11000000010 M"
b0 L"
b0 K"
b10 O"
b11 V"
b100110000001100010011 &
b100110000001100010011 }
b100110000001100010011 g"
b110 %
b110 |
b110 f"
b100000000001100010011 0"
b100 )"
b1100 4"
b10000000000011000010011 /"
b11000000010000000100011 ."
b11000000010000000100011 D"
b10000 3"
b10100 2"
b10001100000011 -"
b11000 1"
1(
b110 h"
#2600
0(
#2800
b1 %"
b1 C"
1B
b11 ]
b11 B"
14
b0 E
b0 r
b1 !"
b1 E"
b1 Y"
b0 I"
b10000000000000 G"
b110 H"
b110 J"
b10000000000000 F"
1S
b11000000010000000100011 &
b11000000010000000100011 }
b11000000010000000100011 g"
b111 %
b111 |
b111 f"
02
1z
b10 \
b10 X"
0j
b11 x
b0 q
b0 ]"
b0 s
b0 \"
b0 T"
b10 M"
b110 L"
b11 K"
b0 V"
03
b0 $
b0 p
b0 c"
1!
b100 l
b100 _"
b1100 n
b1100 ^"
b11100 1"
b11000 2"
b100110000001100010011 -"
b1 '
b1 ,"
b10001100000011 ."
b10001100000011 D"
b10100 3"
b1 "
b1 6"
b1 d"
b0 )"
b10000 4"
b11000000010000000100011 /"
b100 7"
b10000000000011000010011 0"
1(
b111 h"
#3000
0(
#3200
0F
b0 m
b0 b"
b1 _
b1 >"
b0 Z
b0 a"
0X
1:
0S
15
b0 G"
b0 H"
b0 J"
b0 F"
b0 l
b0 _"
b0 n
b0 ^"
0d
b100011 w
0!
0z
1y
b10011 x
b0 #"
b0 M"
b0 L"
b0 K"
b0 O"
0B
b1 #
b1 o
b1 e"
b0 7"
b11000000010000000100011 0"
b0 "
b0 6"
b0 d"
b10100 4"
b10001100000011 /"
b10011 ."
b10011 D"
1(
b1000 h"
#3400
0(
#3600
b10 '"
b10 ="
b1 ;"
b1 +"
b1 :"
b1 9"
1[
b1 *"
b1 8"
1F
b1 D
b1 u
b1 E
b1 r
b1 ~
b1 W"
b1 l
b1 _"
1X
11
b1 I"
b100110000000000000000 G"
b110 H"
b110 J"
b110000100000000000 F"
0:
b11 m
b11 b"
b11111110110000110100101011100011 &
b11111110110000110100101011100011 }
b11111110110000110100101011100011 g"
b1000 %
b1000 |
b1000 f"
b1 t
b1 ["
b110 v
b110 Z"
b1 q
b1 ]"
b1 s
b1 \"
b1 T"
b100110000 M"
b110 L"
b11 K"
b110000 O"
1Q"
b110 n
b110 ^"
b1000 Z
b1000 a"
1e
b11 w
b100000 1"
b11100 2"
b11000000010000000100011 -"
b100110000001100010011 ."
b100110000001100010011 D"
b11000 3"
b10011 /"
b1 5"
b10001100000011 0"
1(
b1001 h"
#3800
0(
#4000
b0 '"
b0 ="
b0 9"
b0 *"
b0 8"
b0 ;"
1[
b0 +"
b0 :"
b0 D
b0 u
b0 l
b0 _"
b0 _
b0 >"
b0 ~
b0 W"
b1 m
b1 b"
b10 E
b10 r
04
b11 !"
b11 E"
b11 Y"
05
b110 I"
b11000000010000000000000 G"
b0 H"
b0 J"
b10000000000110 F"
01
1/
b0 n
b0 ^"
b10 Z
b10 a"
0e
1d
b10011 w
bx #
bx o
bx e"
b10 $
b10 p
b10 c"
12
0y
b1000 \
b1000 X"
1j
b100011 x
b10 #"
b0 t
b0 ["
b0 v
b0 Z"
b110 s
b110 \"
b110 T"
b11000000010 M"
b0 L"
b0 K"
b10 O"
0Q"
b11 V"
b10011 &
b10011 }
b10011 g"
b1001 %
b1001 |
b1001 f"
b10011 0"
b1 "
b1 6"
b1 d"
b10 )"
b11000 4"
b100110000001100010011 /"
b11000000010000000100011 ."
b11000000010000000100011 D"
b11100 3"
b100000 2"
b11111110110000110100101011100011 -"
b100100 1"
1(
b1010 h"
#4200
0(
#4400
b10100 '"
b10100 ="
b11111111111111111111111111110100 ;"
b11111111111111111111111111110100 +"
b11111111111111111111111111110100 :"
b100000 9"
0[
b100000 *"
b100000 8"
1C
b1 &"
b1 A"
b11 ^
b11 @"
b10 D
b10 u
b11111111111111111111111111110100 ~
b11111111111111111111111111110100 W"
11
b100 !"
b100 E"
b100 Y"
1,
b11111111111111111111111111101100 I"
b11111110110000110100000000000000 G"
b11111111111111111111111111110101 H"
b11111111111111111111111111110100 J"
b11111111111100110100011111101100 F"
1S
02
0j
b10000 \
b10000 X"
1$"
b1100011 x
b100 #"
b10 t
b10 ["
b110 v
b110 Z"
b100 q
b100 ]"
b1100 s
b1100 \"
b1111111 ""
b111111101100 T"
b11111110110000110100 M"
b10101 L"
b1111111 S"
1R"
b1010 K"
b111111 U"
1P"
b110100 O"
b1111110110 V"
1N"
b100 E
b100 r
b1 #
b1 o
b1 e"
b0 $
b0 p
b0 c"
1!
b10 l
b10 _"
b110 n
b110 ^"
b10011 -"
b10 '
b10 ,"
b11111110110000110100101011100011 ."
b11111110110000110100101011100011 D"
b100000 3"
b10 "
b10 6"
b10 d"
b0 )"
b11100 4"
b11000000010000000100011 /"
b10 7"
bx 5"
b100110000001100010011 0"
1(
b1011 h"
#4600
0(
#4800
b0 '"
b0 ="
b0 9"
1[
b0 *"
b0 8"
b0 ;"
b0 +"
b0 :"
0C
b0 &"
b0 A"
0F
b1 %"
b1 C"
b1 ^
b1 @"
b0 ~
b0 W"
b0 D
b0 u
b0 m
b0 b"
b11 ]
b11 B"
b1 _
b1 >"
b0 E
b0 r
b0 Z
b0 a"
0X
0S
14
b1 !"
b1 E"
b1 Y"
15
0,
0/
b0 I"
b0 G"
b0 H"
b0 J"
b0 F"
01
b0 l
b0 _"
b0 n
b0 ^"
0d
b100011 w
b10100 $
b10100 p
b10100 c"
0!
1y
b10 \
b10 X"
0$"
b10011 x
b0 #"
b0 t
b0 ["
b0 v
b0 Z"
b0 q
b0 ]"
b0 s
b0 \"
b0 ""
b0 T"
b0 M"
b0 L"
b0 S"
0R"
b0 K"
b0 U"
0P"
b0 O"
b0 V"
0N"
b10001100000011 &
b10001100000011 }
b10001100000011 g"
b101 %
b101 |
b101 f"
bx #
bx o
bx e"
b0 7"
b1 5"
b11000000010000000100011 0"
b100 "
b100 6"
b100 d"
b10100 )"
b100000 4"
b11111110110000110100101011100011 /"
b10011 ."
b10011 D"
b10100 1"
1(
b1100 h"
#5000
0(
#5200
b100110000001100010011 &
b100110000001100010011 }
b100110000001100010011 g"
b110 %
b110 |
b110 f"
b10 #
b10 o
b10 e"
b0 $
b0 p
b0 c"
b10101 n
b10101 ^"
b1100011 w
b11000 1"
b10100 2"
b10001100000011 -"
b0 "
b0 6"
b0 d"
b0 )"
b10011 /"
bx 5"
b11111110110000110100101011100011 0"
1(
b1101 h"
#5400
0(
#5600
b1 %"
b1 C"
b11 ]
b11 B"
1F
1B
b1 m
b1 b"
b1 !"
b1 E"
b1 Y"
b0 _
b0 >"
b10 Z
b10 a"
1X
b10 \
b10 X"
14
05
b10000000000000 G"
b110 H"
b110 J"
b10000000000000 F"
b0 n
b0 ^"
1d
b10011 w
1z
0y
b11 x
b10 #"
b10 M"
b110 L"
b11 K"
b10 O"
b11000000010000000100011 &
b11000000010000000100011 }
b11000000010000000100011 g"
b111 %
b111 |
b111 f"
b10 5"
b10011 0"
b10001100000011 ."
b10001100000011 D"
b10100 3"
b11000 2"
b100110000001100010011 -"
b11100 1"
1(
b1110 h"
#5800
0(
#6000
b1 _
b1 >"
15
b0 G"
b0 H"
b0 J"
b0 F"
1:
0B
0z
1y
b10011 x
b0 #"
b0 M"
b0 L"
b0 K"
b0 O"
b10011 ."
b10011 D"
b10100 4"
b10001100000011 /"
1(
b1111 h"
#6200
0(
#6400
b11 '"
b11 ="
b10 9"
b10 *"
b10 8"
b1 ;"
0[
b1 +"
b1 :"
b10 D
b10 u
1F
b10 l
b10 _"
b1 E
b1 r
b1 ~
b1 W"
b11 m
b11 b"
1X
0:
b1 I"
b100110000000000000000 G"
b110 H"
b110 J"
b110000100000000000 F"
11
b110 n
b110 ^"
b1000 Z
b1000 a"
1e
0d
b11 w
b10 t
b10 ["
b110 v
b110 Z"
b1 q
b1 ]"
b1 s
b1 \"
b1 T"
b100110000 M"
b110 L"
b11 K"
b110000 O"
1Q"
b11111110110000110100101011100011 &
b11111110110000110100101011100011 }
b11111110110000110100101011100011 g"
b1000 %
b1000 |
b1000 f"
b10001100000011 0"
b10011 /"
b100110000001100010011 ."
b100110000001100010011 D"
b11000 3"
b11100 2"
b11000000010000000100011 -"
b100000 1"
1(
b10000 h"
#6600
0(
#6800
b0 '"
b0 ="
b0 9"
1[
b0 *"
b0 8"
b0 ;"
b0 +"
b0 :"
b0 D
b0 u
b0 _
b0 >"
b0 ~
b0 W"
b0 l
b0 _"
b11 E
b11 r
01
1/
04
b11 !"
b11 E"
b11 Y"
05
b110 I"
b11000000010000000000000 G"
b0 H"
b0 J"
b10000000000110 F"
b1 m
b1 b"
b10011 &
b10011 }
b10011 g"
b1001 %
b1001 |
b1001 f"
12
0y
b1000 \
b1000 X"
1j
b100011 x
b10 #"
b0 t
b0 ["
b0 v
b0 Z"
b10 q
b10 ]"
b110 s
b110 \"
b110 T"
b11000000010 M"
b0 L"
b0 K"
b10 O"
0Q"
b11 V"
bx #
bx o
bx e"
b11 $
b11 p
b11 c"
b0 n
b0 ^"
b10 Z
b10 a"
0e
1d
b10011 w
b100100 1"
b100000 2"
b11111110110000110100101011100011 -"
b11000000010000000100011 ."
b11000000010000000100011 D"
b11100 3"
b1 "
b1 6"
b1 d"
b11 )"
b11000 4"
b100110000001100010011 /"
b10011 0"
1(
b10001 h"
#7000
0(
#7200
b10100 '"
b10100 ="
b11111111111111111111111111110100 ;"
b11111111111111111111111111110100 +"
b11111111111111111111111111110100 :"
b100000 9"
0[
b100000 *"
b100000 8"
1C
b1 &"
b1 A"
b11 ^
b11 @"
b11 D
b11 u
b11111111111111111111111111110100 ~
b11111111111111111111111111110100 W"
1S
b100 !"
b100 E"
b100 Y"
1,
b11111111111111111111111111101100 I"
b11111110110000110100000000000000 G"
b11111111111111111111111111110101 H"
b11111111111111111111111111110100 J"
b11111111111100110100011111101100 F"
11
b11 l
b11 _"
b110 n
b110 ^"
b100 E
b100 r
b10 #
b10 o
b10 e"
b0 $
b0 p
b0 c"
1!
0j
b10000 \
b10000 X"
1$"
b1100011 x
b100 #"
b11 t
b11 ["
b110 v
b110 Z"
b100 q
b100 ]"
b1100 s
b1100 \"
b1111111 ""
b111111101100 T"
b11111110110000110100 M"
b10101 L"
b1111111 S"
1R"
b1010 K"
b111111 U"
1P"
b110100 O"
b1111110110 V"
1N"
02
b11 7"
bx 5"
b100110000001100010011 0"
b11 "
b11 6"
b11 d"
b0 )"
b11100 4"
b11000000010000000100011 /"
b11 '
b11 ,"
b11111110110000110100101011100011 ."
b11111110110000110100101011100011 D"
b100000 3"
b10011 -"
1(
b10010 h"
#7400
0(
#7600
b0 '"
b0 ="
b0 9"
1[
b0 *"
b0 8"
b0 ;"
b0 +"
b0 :"
0C
b0 &"
b0 A"
b1 %"
b1 C"
b1 ^
b1 @"
b0 ~
b0 W"
0F
b11 ]
b11 B"
b1 _
b1 >"
b0 E
b0 r
b0 D
b0 u
b0 m
b0 b"
01
14
b1 !"
b1 E"
b1 Y"
15
0,
0/
b0 I"
b0 G"
b0 H"
b0 J"
b0 F"
0S
b0 Z
b0 a"
0X
b10001100000011 &
b10001100000011 }
b10001100000011 g"
b101 %
b101 |
b101 f"
1y
b10 \
b10 X"
0$"
b10011 x
b0 #"
b0 t
b0 ["
b0 v
b0 Z"
b0 q
b0 ]"
b0 s
b0 \"
b0 ""
b0 T"
b0 M"
b0 L"
b0 S"
0R"
b0 K"
b0 U"
0P"
b0 O"
b0 V"
0N"
b10100 $
b10100 p
b10100 c"
0!
b0 l
b0 _"
b0 n
b0 ^"
0d
b100011 w
b10100 1"
b10011 ."
b10011 D"
b100 "
b100 6"
b100 d"
b10100 )"
b100000 4"
b11111110110000110100101011100011 /"
b0 7"
b10 5"
b11000000010000000100011 0"
bx #
bx o
bx e"
1(
b10011 h"
#7800
0(
#8000
b10101 n
b10101 ^"
b1100011 w
b11 #
b11 o
b11 e"
b0 $
b0 p
b0 c"
b100110000001100010011 &
b100110000001100010011 }
b100110000001100010011 g"
b110 %
b110 |
b110 f"
bx 5"
b11111110110000110100101011100011 0"
b0 "
b0 6"
b0 d"
b0 )"
b10011 /"
b10100 2"
b10001100000011 -"
b11000 1"
1(
b10100 h"
#8200
0(
#8400
b1 %"
b1 C"
b11 ]
b11 B"
1B
1F
b1 !"
b1 E"
b1 Y"
b0 _
b0 >"
b1 m
b1 b"
b10 \
b10 X"
14
05
b10000000000000 G"
b110 H"
b110 J"
b10000000000000 F"
b10 Z
b10 a"
1X
b11000000010000000100011 &
b11000000010000000100011 }
b11000000010000000100011 g"
b111 %
b111 |
b111 f"
1z
0y
b11 x
b10 #"
b10 M"
b110 L"
b11 K"
b10 O"
b0 n
b0 ^"
1d
b10011 w
b11100 1"
b11000 2"
b100110000001100010011 -"
b10001100000011 ."
b10001100000011 D"
b10100 3"
b11 5"
b10011 0"
1(
b10101 h"
#8600
0(
#8800
b1 _
b1 >"
1:
15
b0 G"
b0 H"
b0 J"
b0 F"
0z
1y
b10011 x
b0 #"
b0 M"
b0 L"
b0 K"
b0 O"
0B
b10100 4"
b10001100000011 /"
b10011 ."
b10011 D"
1(
b10110 h"
#9000
0(
#9200
b100 '"
b100 ="
b1 ;"
b1 +"
b1 :"
b11 9"
0[
b11 *"
b11 8"
1F
b11 D
b11 u
b1 E
b1 r
b1 ~
b1 W"
b11 l
b11 _"
11
b1 I"
b100110000000000000000 G"
b110 H"
b110 J"
b110000100000000000 F"
0:
b11 m
b11 b"
1X
b11111110110000110100101011100011 &
b11111110110000110100101011100011 }
b11111110110000110100101011100011 g"
b1000 %
b1000 |
b1000 f"
b11 t
b11 ["
b110 v
b110 Z"
b1 q
b1 ]"
b1 s
b1 \"
b1 T"
b100110000 M"
b110 L"
b11 K"
b110000 O"
1Q"
b110 n
b110 ^"
b1000 Z
b1000 a"
1e
0d
b11 w
b100000 1"
b11100 2"
b11000000010000000100011 -"
b100110000001100010011 ."
b100110000001100010011 D"
b11000 3"
b10011 /"
b10001100000011 0"
1(
b10111 h"
#9400
0(
#9600
b0 '"
b0 ="
b0 9"
1[
b0 *"
b0 8"
b0 ;"
b0 +"
b0 :"
b0 D
b0 u
b0 l
b0 _"
b0 _
b0 >"
b0 ~
b0 W"
b1 m
b1 b"
b100 E
b100 r
04
b11 !"
b11 E"
b11 Y"
05
b110 I"
b11000000010000000000000 G"
b0 H"
b0 J"
b10000000000110 F"
01
1/
b0 n
b0 ^"
b10 Z
b10 a"
0e
1d
b10011 w
bx #
bx o
bx e"
b100 $
b100 p
b100 c"
12
0y
b1000 \
b1000 X"
1j
b100011 x
b10 #"
b0 t
b0 ["
b0 v
b0 Z"
b11 q
b11 ]"
b110 s
b110 \"
b110 T"
b11000000010 M"
b0 L"
b0 K"
b10 O"
0Q"
b11 V"
b10011 &
b10011 }
b10011 g"
b1001 %
b1001 |
b1001 f"
b10011 0"
b1 "
b1 6"
b1 d"
b100 )"
b11000 4"
b100110000001100010011 /"
b11000000010000000100011 ."
b11000000010000000100011 D"
b11100 3"
b100000 2"
b11111110110000110100101011100011 -"
b100100 1"
1(
b11000 h"
#9800
0(
#10000
b10100 '"
b10100 ="
b11111111111111111111111111110100 ;"
b11111111111111111111111111110100 +"
b11111111111111111111111111110100 :"
b100000 9"
0[
b100000 *"
b100000 8"
0C
b1 &"
b1 A"
b11 ^
b11 @"
b100 D
b100 u
b11111111111111111111111111110100 ~
b11111111111111111111111111110100 W"
11
b100 !"
b100 E"
b100 Y"
1,
b11111111111111111111111111101100 I"
b11111110110000110100000000000000 G"
b11111111111111111111111111110101 H"
b11111111111111111111111111110100 J"
b11111111111100110100011111101100 F"
1S
02
0j
b10000 \
b10000 X"
1$"
b1100011 x
b100 #"
b100 t
b100 ["
b110 v
b110 Z"
b100 q
b100 ]"
b1100 s
b1100 \"
b1111111 ""
b111111101100 T"
b11111110110000110100 M"
b10101 L"
b1111111 S"
1R"
b1010 K"
b111111 U"
1P"
b110100 O"
b1111110110 V"
1N"
b100 E
b100 r
b11 #
b11 o
b11 e"
b0 $
b0 p
b0 c"
1!
b100 l
b100 _"
b110 n
b110 ^"
b10011 -"
b100 '
b100 ,"
b11111110110000110100101011100011 ."
b11111110110000110100101011100011 D"
b100000 3"
b100 "
b100 6"
b100 d"
b0 )"
b11100 4"
b11000000010000000100011 /"
b100 7"
bx 5"
b100110000001100010011 0"
1(
b11001 h"
#10200
0(
